\relax 
\providecommand\hyper@newdestlabel[2]{}
\@writefile{lof}{\addvspace {10pt}}
\@writefile{lot}{\addvspace {10pt}}
\@writefile{toc}{\contentsline {chapter}{\chapternumberline {2}Analýza}{5}{chapter.2}\protected@file@percent }
\@writefile{toc}{\contentsline {section}{\numberline {2.1}Modely softwarového procesu}{5}{section.2.1}\protected@file@percent }
\newlabel{analysis:sdlc}{{\M@TitleReference {2.1}{Modely softwarového procesu}}{5}{Modely softwarového procesu}{section.2.1}{}}
\@writefile{toc}{\contentsline {subsection}{\numberline {2.1.1}Vodopád}{5}{subsection.2.1.1}\protected@file@percent }
\@writefile{toc}{\contentsline {subsection}{\numberline {2.1.2}Iterativní}{6}{subsection.2.1.2}\protected@file@percent }
\@writefile{toc}{\contentsline {subsection}{\numberline {2.1.3}Agilní}{6}{subsection.2.1.3}\protected@file@percent }
\@writefile{toc}{\contentsline {subsection}{\numberline {2.1.4}Rozhodnutí}{7}{subsection.2.1.4}\protected@file@percent }
\@writefile{toc}{\contentsline {section}{\numberline {2.2}Analýza požadavků}{7}{section.2.2}\protected@file@percent }
\newlabel{analysis:requirements}{{\M@TitleReference {2.2}{Analýza požadavků}}{7}{Analýza požadavků}{section.2.2}{}}
\@writefile{toc}{\contentsline {subsection}{\numberline {2.2.1}Analýza na základě současného systému}{7}{subsection.2.2.1}\protected@file@percent }
\newlabel{analysis:requirements-current}{{\M@TitleReference {2.2.1}{Analýza na základě současného systému}}{7}{Analýza na základě současného systému}{subsection.2.2.1}{}}
\@writefile{toc}{\contentsline {subsection}{\numberline {2.2.2}Nové požadavky}{9}{subsection.2.2.2}\protected@file@percent }
\newlabel{analysis:requirements-new}{{\M@TitleReference {2.2.2}{Nové požadavky}}{9}{Nové požadavky}{subsection.2.2.2}{}}
\@writefile{toc}{\contentsline {section}{\numberline {2.3}Přístup k vývoji webové aplikace}{10}{section.2.3}\protected@file@percent }
\newlabel{analysis:architecture}{{\M@TitleReference {2.3}{Přístup k vývoji webové aplikace}}{10}{Přístup k vývoji webové aplikace}{section.2.3}{}}
\@writefile{toc}{\contentsline {subsection}{\numberline {2.3.1}Multiple-page application}{10}{subsection.2.3.1}\protected@file@percent }
\@writefile{toc}{\contentsline {subsection}{\numberline {2.3.2}Single-page application}{11}{subsection.2.3.2}\protected@file@percent }
\@writefile{toc}{\contentsline {subsection}{\numberline {2.3.3}Rozhodnutí}{12}{subsection.2.3.3}\protected@file@percent }
\@writefile{toc}{\contentsline {section}{\numberline {2.4}Analýza problémové domény}{12}{section.2.4}\protected@file@percent }
\newlabel{analysis:domain}{{\M@TitleReference {2.4}{Analýza problémové domény}}{12}{Analýza problémové domény}{section.2.4}{}}
\@writefile{toc}{\contentsline {subsection}{\numberline {2.4.1}Výrobce}{12}{subsection.2.4.1}\protected@file@percent }
\@writefile{toc}{\contentsline {subsubsection}{\numberline {2.4.1.1}Přehled všech výrobců}{13}{subsubsection.2.4.1.1}\protected@file@percent }
\newlabel{analysis:manufacturer-table}{{\M@TitleReference {2.4.1.1}{Přehled všech výrobců}}{13}{Přehled všech výrobců}{subsubsection.2.4.1.1}{}}
\@writefile{toc}{\contentsline {subsubsection}{\numberline {2.4.1.2}Detail výrobce}{13}{subsubsection.2.4.1.2}\protected@file@percent }
\newlabel{analysis:manufacturer-detail-general}{{\M@TitleReference {2.4.1.2}{Karta Obecné}}{13}{Karta Obecné}{section*.18}{}}
\@writefile{lof}{\contentsline {figure}{\numberline {2.1}{\ignorespaces Karta \textsl  {Obecné} v~detailu výrobce}}{14}{figure.2.1}\protected@file@percent }
\newlabel{fig:manufacturer-cur-detail-general}{{\M@TitleReference {2.1}{Karta \textsl  {Obecné} v~detailu výrobce}}{14}{Karta \textsl {Obecné} v~detailu výrobce}{figure.2.1}{}}
\@writefile{lof}{\contentsline {figure}{\numberline {2.2}{\ignorespaces Karta \textsl  {Nastavení pro domény} v~detailu výrobce}}{14}{figure.2.2}\protected@file@percent }
\newlabel{fig:manufacturer-cur-detail-domain}{{\M@TitleReference {2.2}{Karta \textsl  {Nastavení pro domény} v~detailu výrobce}}{14}{Karta \textsl {Nastavení pro domény} v~detailu výrobce}{figure.2.2}{}}
\newlabel{analysis:manufacturer-cur-detail-domain}{{\M@TitleReference {2.4.1.2}{Karta Nastavení pro domény}}{15}{Karta Nastavení pro domény}{section*.19}{}}
\@writefile{toc}{\contentsline {subsection}{\numberline {2.4.2}Kategorie}{15}{subsection.2.4.2}\protected@file@percent }
\@writefile{toc}{\contentsline {subsubsection}{\numberline {2.4.2.1}Přehled všech kategoríí}{15}{subsubsection.2.4.2.1}\protected@file@percent }
\@writefile{toc}{\contentsline {subsubsection}{\numberline {2.4.2.2}Detail kategorie}{15}{subsubsection.2.4.2.2}\protected@file@percent }
\@writefile{lof}{\contentsline {figure}{\numberline {2.3}{\ignorespaces Karta \textsl  {Obecné} v~detailu kategorie}}{16}{figure.2.3}\protected@file@percent }
\newlabel{fig:category-cur-detail-general}{{\M@TitleReference {2.3}{Karta \textsl  {Obecné} v~detailu kategorie}}{16}{Karta \textsl {Obecné} v~detailu kategorie}{figure.2.3}{}}
\@writefile{lof}{\contentsline {figure}{\numberline {2.4}{\ignorespaces Karta \textsl  {Parametry} v~detailu kategorie}}{18}{figure.2.4}\protected@file@percent }
\newlabel{fig:category-cur-params}{{\M@TitleReference {2.4}{Karta \textsl  {Parametry} v~detailu kategorie}}{18}{Karta \textsl {Parametry} v~detailu kategorie}{figure.2.4}{}}
\@writefile{lof}{\contentsline {figure}{\numberline {2.5}{\ignorespaces Ukázka nekonzistence aktuálního systému}}{18}{figure.2.5}\protected@file@percent }
\newlabel{fig:add-comparison}{{\M@TitleReference {2.5}{Ukázka nekonzistence aktuálního systému}}{18}{Ukázka nekonzistence aktuálního systému}{figure.2.5}{}}
\@writefile{lof}{\contentsline {figure}{\numberline {2.6}{\ignorespaces Karta \textsl  {Filtry} v~detailu kategorie}}{19}{figure.2.6}\protected@file@percent }
\newlabel{fig:category-cur-filters}{{\M@TitleReference {2.6}{Karta \textsl  {Filtry} v~detailu kategorie}}{19}{Karta \textsl {Filtry} v~detailu kategorie}{figure.2.6}{}}
\@writefile{toc}{\contentsline {subsection}{\numberline {2.4.3}Objednávka}{20}{subsection.2.4.3}\protected@file@percent }
\@writefile{lof}{\contentsline {figure}{\numberline {2.7}{\ignorespaces Ukázka problému s~přesahem v~aktuálním systému}}{21}{figure.2.7}\protected@file@percent }
\newlabel{fig:category-banner}{{\M@TitleReference {2.7}{Ukázka problému s~přesahem v~aktuálním systému}}{21}{Ukázka problému s~přesahem v~aktuálním systému}{figure.2.7}{}}
\@writefile{toc}{\contentsline {subsubsection}{\numberline {2.4.3.1}Přehled všech objednávek}{21}{subsubsection.2.4.3.1}\protected@file@percent }
\newlabel{analysis:order-table}{{\M@TitleReference {2.4.3.1}{Přehled všech objednávek}}{21}{Přehled všech objednávek}{subsubsection.2.4.3.1}{}}
\@writefile{lof}{\contentsline {figure}{\numberline {2.8}{\ignorespaces \textsl  {Přehled všech objednávek}}}{22}{figure.2.8}\protected@file@percent }
\newlabel{fig:order-cur-table}{{\M@TitleReference {2.8}{\textsl  {Přehled všech objednávek}}}{22}{\textsl {Přehled všech objednávek}}{figure.2.8}{}}
\@writefile{toc}{\contentsline {subsubsection}{\numberline {2.4.3.2}Detail objednávky}{22}{subsubsection.2.4.3.2}\protected@file@percent }
\@writefile{lof}{\contentsline {figure}{\numberline {2.9}{\ignorespaces \textsl  {Detail objednávky}}}{23}{figure.2.9}\protected@file@percent }
\newlabel{fig:order-cur-detail}{{\M@TitleReference {2.9}{\textsl  {Detail objednávky}}}{23}{\textsl {Detail objednávky}}{figure.2.9}{}}
\newlabel{analysis:order-detail-products}{{\M@TitleReference {2.4.3.2}{Produkty}}{24}{Produkty}{section*.29}{}}
\newlabel{analysis:order-history}{{\M@TitleReference {2.4.3.2}{Historie objednávky}}{25}{Historie objednávky}{section*.31}{}}
\@writefile{toc}{\contentsline {subsubsection}{\numberline {2.4.3.3}Dobropis}{26}{subsubsection.2.4.3.3}\protected@file@percent }
\newlabel{analysis:order-credit-note}{{\M@TitleReference {2.4.3.3}{Dobropis}}{26}{Dobropis}{subsubsection.2.4.3.3}{}}
\newlabel{analysis:order-credit-note-issues}{{\M@TitleReference {2.4.3.3}{Dobropis}}{26}{Dobropis}{figure.2.10}{}}
\@writefile{lof}{\contentsline {figure}{\numberline {2.10}{\ignorespaces Stránka pro vystavení dobropisu}}{27}{figure.2.10}\protected@file@percent }
\newlabel{fig:order-cur-credit-note}{{\M@TitleReference {2.10}{Stránka pro vystavení dobropisu}}{27}{Stránka pro vystavení dobropisu}{figure.2.10}{}}
\@writefile{toc}{\contentsline {section}{\numberline {2.5}Závěr}{28}{section.2.5}\protected@file@percent }
\@setckpt{chapters/Analysis}{
\setcounter{page}{29}
\setcounter{equation}{0}
\setcounter{enumi}{0}
\setcounter{enumii}{0}
\setcounter{enumiii}{0}
\setcounter{enumiv}{0}
\setcounter{footnote}{0}
\setcounter{mpfootnote}{0}
\setcounter{@memmarkcntra}{0}
\setcounter{storedpagenumber}{1}
\setcounter{book}{0}
\setcounter{part}{0}
\setcounter{chapter}{2}
\setcounter{section}{5}
\setcounter{subsection}{0}
\setcounter{subsubsection}{0}
\setcounter{paragraph}{0}
\setcounter{subparagraph}{0}
\setcounter{@ppsavesec}{0}
\setcounter{@ppsaveapp}{0}
\setcounter{vslineno}{0}
\setcounter{poemline}{0}
\setcounter{modulo@vs}{0}
\setcounter{memfvsline}{0}
\setcounter{verse}{0}
\setcounter{chrsinstr}{0}
\setcounter{poem}{0}
\setcounter{newflo@tctr}{4}
\setcounter{@contsubnum}{0}
\setcounter{maxsecnumdepth}{3}
\setcounter{sidefootnote}{0}
\setcounter{pagenote}{0}
\setcounter{pagenoteshadow}{0}
\setcounter{memfbvline}{0}
\setcounter{bvlinectr}{0}
\setcounter{cp@cntr}{0}
\setcounter{ism@mctr}{0}
\setcounter{xsm@mctr}{0}
\setcounter{csm@mctr}{0}
\setcounter{ksm@mctr}{0}
\setcounter{xksm@mctr}{0}
\setcounter{cksm@mctr}{0}
\setcounter{msm@mctr}{0}
\setcounter{xmsm@mctr}{0}
\setcounter{cmsm@mctr}{0}
\setcounter{bsm@mctr}{0}
\setcounter{workm@mctr}{0}
\setcounter{sheetsequence}{47}
\setcounter{lastsheet}{109}
\setcounter{lastpage}{91}
\setcounter{figure}{10}
\setcounter{lofdepth}{1}
\setcounter{table}{0}
\setcounter{lotdepth}{1}
\setcounter{Item}{0}
\setcounter{Hfootnote}{0}
\setcounter{memhycontfloat}{0}
\setcounter{Hpagenote}{0}
\setcounter{bookmark@seq@number}{8}
\setcounter{AM@survey}{0}
\setcounter{tabx@nest}{0}
\setcounter{listtotal}{0}
\setcounter{listcount}{0}
\setcounter{liststart}{0}
\setcounter{liststop}{0}
\setcounter{citecount}{0}
\setcounter{citetotal}{0}
\setcounter{multicitecount}{0}
\setcounter{multicitetotal}{0}
\setcounter{instcount}{33}
\setcounter{maxnames}{99}
\setcounter{minnames}{1}
\setcounter{maxitems}{3}
\setcounter{minitems}{1}
\setcounter{citecounter}{0}
\setcounter{maxcitecounter}{0}
\setcounter{savedcitecounter}{0}
\setcounter{uniquelist}{0}
\setcounter{uniquename}{0}
\setcounter{refsection}{0}
\setcounter{refsegment}{0}
\setcounter{maxextratitle}{0}
\setcounter{maxextratitleyear}{0}
\setcounter{maxextraname}{5}
\setcounter{maxextradate}{0}
\setcounter{maxextraalpha}{0}
\setcounter{abbrvpenalty}{50}
\setcounter{highnamepenalty}{50}
\setcounter{lownamepenalty}{25}
\setcounter{maxparens}{3}
\setcounter{parenlevel}{0}
\setcounter{blx@maxsection}{0}
\setcounter{blx@maxsegment@0}{0}
\setcounter{blx@sectionciteorder@0}{33}
\setcounter{mincomprange}{10}
\setcounter{maxcomprange}{100000}
\setcounter{mincompwidth}{1}
\setcounter{afterword}{0}
\setcounter{savedafterword}{0}
\setcounter{annotator}{0}
\setcounter{savedannotator}{0}
\setcounter{author}{0}
\setcounter{savedauthor}{0}
\setcounter{bookauthor}{0}
\setcounter{savedbookauthor}{0}
\setcounter{commentator}{0}
\setcounter{savedcommentator}{0}
\setcounter{editor}{0}
\setcounter{savededitor}{0}
\setcounter{editora}{0}
\setcounter{savededitora}{0}
\setcounter{editorb}{0}
\setcounter{savededitorb}{0}
\setcounter{editorc}{0}
\setcounter{savededitorc}{0}
\setcounter{foreword}{0}
\setcounter{savedforeword}{0}
\setcounter{holder}{0}
\setcounter{savedholder}{0}
\setcounter{introduction}{0}
\setcounter{savedintroduction}{0}
\setcounter{namea}{0}
\setcounter{savednamea}{0}
\setcounter{nameb}{0}
\setcounter{savednameb}{0}
\setcounter{namec}{0}
\setcounter{savednamec}{0}
\setcounter{translator}{0}
\setcounter{savedtranslator}{0}
\setcounter{shortauthor}{0}
\setcounter{savedshortauthor}{0}
\setcounter{shorteditor}{0}
\setcounter{savedshorteditor}{0}
\setcounter{supervisor}{0}
\setcounter{savedsupervisor}{0}
\setcounter{labelname}{0}
\setcounter{savedlabelname}{0}
\setcounter{institution}{0}
\setcounter{savedinstitution}{0}
\setcounter{lista}{0}
\setcounter{savedlista}{0}
\setcounter{listb}{0}
\setcounter{savedlistb}{0}
\setcounter{listc}{0}
\setcounter{savedlistc}{0}
\setcounter{listd}{0}
\setcounter{savedlistd}{0}
\setcounter{liste}{0}
\setcounter{savedliste}{0}
\setcounter{listf}{0}
\setcounter{savedlistf}{0}
\setcounter{location}{0}
\setcounter{savedlocation}{0}
\setcounter{organization}{0}
\setcounter{savedorganization}{0}
\setcounter{origlocation}{0}
\setcounter{savedoriglocation}{0}
\setcounter{origpublisher}{0}
\setcounter{savedorigpublisher}{0}
\setcounter{publisher}{0}
\setcounter{savedpublisher}{0}
\setcounter{language}{0}
\setcounter{savedlanguage}{0}
\setcounter{origlanguage}{0}
\setcounter{savedoriglanguage}{0}
\setcounter{pageref}{0}
\setcounter{savedpageref}{0}
\setcounter{textcitecount}{0}
\setcounter{textcitetotal}{0}
\setcounter{textcitemaxnames}{0}
\setcounter{biburlbigbreakpenalty}{100}
\setcounter{biburlbreakpenalty}{200}
\setcounter{biburlnumpenalty}{0}
\setcounter{biburlucpenalty}{0}
\setcounter{biburllcpenalty}{0}
\setcounter{smartand}{1}
\setcounter{FancyVerbLine}{0}
\setcounter{linenumber}{1}
\setcounter{LN@truepage}{46}
\setcounter{FV@TrueTabGroupLevel}{0}
\setcounter{FV@TrueTabCounter}{0}
\setcounter{FV@HighlightLinesStart}{0}
\setcounter{FV@HighlightLinesStop}{0}
\setcounter{FancyVerbLineBreakLast}{0}
\setcounter{float@type}{8}
\setcounter{minted@FancyVerbLineTemp}{0}
\setcounter{minted@pygmentizecounter}{0}
\setcounter{listing}{0}
\setcounter{section@level}{1}
}
