\relax 
\providecommand\hyper@newdestlabel[2]{}
\@writefile{lof}{\addvspace {10pt}}
\@writefile{lot}{\addvspace {10pt}}
\@writefile{toc}{\contentsline {chapter}{\chapternumberline {3}Návrh}{29}{chapter.3}\protected@file@percent }
\@writefile{toc}{\contentsline {section}{\numberline {3.1}Výběr návrhového systému}{29}{section.3.1}\protected@file@percent }
\newlabel{design:design-system-choice}{{\M@TitleReference {3.1}{Výběr návrhového systému}}{29}{Výběr návrhového systému}{section.3.1}{}}
\@writefile{toc}{\contentsline {subsection}{\numberline {3.1.1}Material Design}{30}{subsection.3.1.1}\protected@file@percent }
\@writefile{toc}{\contentsline {subsection}{\numberline {3.1.2}Flat Remix}{30}{subsection.3.1.2}\protected@file@percent }
\@writefile{lot}{\contentsline {table}{\numberline {3.1}{\ignorespaces Výsledek průzkumu návrhových systémů}}{31}{table.3.1}\protected@file@percent }
\newlabel{tab:design-system-choice}{{\M@TitleReference {3.1}{Výsledek průzkumu návrhových systémů}}{31}{Výsledek průzkumu návrhových systémů}{table.3.1}{}}
\@writefile{toc}{\contentsline {subsection}{\numberline {3.1.3}Grommet}{31}{subsection.3.1.3}\protected@file@percent }
\@writefile{toc}{\contentsline {subsection}{\numberline {3.1.4}Shrnutí}{31}{subsection.3.1.4}\protected@file@percent }
\@writefile{toc}{\contentsline {section}{\numberline {3.2}Výběr nástroje pro tvorbu wireframů}{31}{section.3.2}\protected@file@percent }
\newlabel{design:tool-choice}{{\M@TitleReference {3.2}{Výběr nástroje pro tvorbu wireframů}}{31}{Výběr nástroje pro tvorbu wireframů}{section.3.2}{}}
\@writefile{toc}{\contentsline {subsection}{\numberline {3.2.1}Balsamiq}{32}{subsection.3.2.1}\protected@file@percent }
\@writefile{lof}{\contentsline {figure}{\numberline {3.1}{\ignorespaces Uživatelské rozhraní programu Balsamiq}}{33}{figure.3.1}\protected@file@percent }
\newlabel{fig:balsamiq}{{\M@TitleReference {3.1}{Uživatelské rozhraní programu Balsamiq}}{33}{Uživatelské rozhraní programu Balsamiq}{figure.3.1}{}}
\@writefile{toc}{\contentsline {subsection}{\numberline {3.2.2}Axure RP}{33}{subsection.3.2.2}\protected@file@percent }
\@writefile{lof}{\contentsline {figure}{\numberline {3.2}{\ignorespaces Uživatelské rozhraní programu Axure RP}}{34}{figure.3.2}\protected@file@percent }
\newlabel{fig:axure-rp}{{\M@TitleReference {3.2}{Uživatelské rozhraní programu Axure RP}}{34}{Uživatelské rozhraní programu Axure RP}{figure.3.2}{}}
\@writefile{toc}{\contentsline {subsection}{\numberline {3.2.3}Figma}{34}{subsection.3.2.3}\protected@file@percent }
\@writefile{lof}{\contentsline {figure}{\numberline {3.3}{\ignorespaces Uživatelské rozhraní programu Figma}}{35}{figure.3.3}\protected@file@percent }
\newlabel{fig:figma}{{\M@TitleReference {3.3}{Uživatelské rozhraní programu Figma}}{35}{Uživatelské rozhraní programu Figma}{figure.3.3}{}}
\@writefile{lot}{\contentsline {table}{\numberline {3.2}{\ignorespaces Výsledek průzkumu nástrojů pro tvorbu wireframů}}{35}{table.3.2}\protected@file@percent }
\newlabel{tab:tool-choice}{{\M@TitleReference {3.2}{Výsledek průzkumu nástrojů pro tvorbu wireframů}}{35}{Výsledek průzkumu nástrojů pro tvorbu wireframů}{table.3.2}{}}
\@writefile{toc}{\contentsline {subsection}{\numberline {3.2.4}Shrnutí}{35}{subsection.3.2.4}\protected@file@percent }
\@writefile{toc}{\contentsline {section}{\numberline {3.3}Tvorba Lo-Fi prototypů}{35}{section.3.3}\protected@file@percent }
\newlabel{design:prototyping}{{\M@TitleReference {3.3}{Tvorba Lo-Fi prototypů}}{35}{Tvorba Lo-Fi prototypů}{section.3.3}{}}
\@writefile{toc}{\contentsline {subsection}{\numberline {3.3.1}Výrobce}{36}{subsection.3.3.1}\protected@file@percent }
\@writefile{toc}{\contentsline {subsubsection}{\numberline {3.3.1.1}Přehled všech výrobců}{36}{subsubsection.3.3.1.1}\protected@file@percent }
\newlabel{design:manufacturer-table}{{\M@TitleReference {3.3.1.1}{Přehled všech výrobců}}{36}{Přehled všech výrobců}{subsubsection.3.3.1.1}{}}
\@writefile{toc}{\contentsline {subsubsection}{\numberline {3.3.1.2}Detail výrobce}{36}{subsubsection.3.3.1.2}\protected@file@percent }
\newlabel{design:manufacturer-detail}{{\M@TitleReference {3.3.1.2}{Detail výrobce}}{36}{Detail výrobce}{subsubsection.3.3.1.2}{}}
\@writefile{lof}{\contentsline {figure}{\numberline {3.4}{\ignorespaces První verze návrhu karty \textsl  {Obecné} v~detailu výrobce}}{38}{figure.3.4}\protected@file@percent }
\newlabel{fig:manufacturer-detail-general-v1}{{\M@TitleReference {3.4}{První verze návrhu karty \textsl  {Obecné} v~detailu výrobce}}{38}{První verze návrhu karty \textsl {Obecné} v~detailu výrobce}{figure.3.4}{}}
\@writefile{toc}{\contentsline {subsection}{\numberline {3.3.2}Kategorie}{38}{subsection.3.3.2}\protected@file@percent }
\@writefile{toc}{\contentsline {subsubsection}{\numberline {3.3.2.1}Přehled všech kategorií}{38}{subsubsection.3.3.2.1}\protected@file@percent }
\newlabel{design:category-table}{{\M@TitleReference {3.3.2.1}{Přehled všech kategorií}}{38}{Přehled všech kategorií}{subsubsection.3.3.2.1}{}}
\@writefile{lof}{\contentsline {figure}{\numberline {3.5}{\ignorespaces První verze návrhu karty \textsl  {Nastavení pro domény} v~detailu výrobce}}{39}{figure.3.5}\protected@file@percent }
\newlabel{fig:manufacturer-detail-domain-v1}{{\M@TitleReference {3.5}{První verze návrhu karty \textsl  {Nastavení pro domény} v~detailu výrobce}}{39}{První verze návrhu karty \textsl {Nastavení pro domény} v~detailu výrobce}{figure.3.5}{}}
\@writefile{lof}{\contentsline {figure}{\numberline {3.6}{\ignorespaces Druhá verze návrhu detailu výrobce}}{40}{figure.3.6}\protected@file@percent }
\newlabel{fig:manufacturer-detail-v2}{{\M@TitleReference {3.6}{Druhá verze návrhu detailu výrobce}}{40}{Druhá verze návrhu detailu výrobce}{figure.3.6}{}}
\@writefile{toc}{\contentsline {subsubsection}{\numberline {3.3.2.2}Detail kategorie}{40}{subsubsection.3.3.2.2}\protected@file@percent }
\@writefile{lof}{\contentsline {figure}{\numberline {3.7}{\ignorespaces Návrh karty \textsl  {Parametry} v~detailu kategorie}}{41}{figure.3.7}\protected@file@percent }
\newlabel{fig:category-detail-params}{{\M@TitleReference {3.7}{Návrh karty \textsl  {Parametry} v~detailu kategorie}}{41}{Návrh karty \textsl {Parametry} v~detailu kategorie}{figure.3.7}{}}
\newlabel{design:category-parameter}{{\M@TitleReference {3.3.2.2}{Karta Parametry}}{41}{Karta Parametry}{section*.38}{}}
\@writefile{lof}{\contentsline {figure}{\numberline {3.8}{\ignorespaces Návrh karty \textsl  {Filtry} v~detailu kategorie}}{42}{figure.3.8}\protected@file@percent }
\newlabel{fig:category-detail-filters}{{\M@TitleReference {3.8}{Návrh karty \textsl  {Filtry} v~detailu kategorie}}{42}{Návrh karty \textsl {Filtry} v~detailu kategorie}{figure.3.8}{}}
\@writefile{lof}{\contentsline {figure}{\numberline {3.9}{\ignorespaces Návrh karty \textsl  {Bannery} v~detailu kategorie}}{43}{figure.3.9}\protected@file@percent }
\newlabel{fig:category-detail-banners}{{\M@TitleReference {3.9}{Návrh karty \textsl  {Bannery} v~detailu kategorie}}{43}{Návrh karty \textsl {Bannery} v~detailu kategorie}{figure.3.9}{}}
\@writefile{toc}{\contentsline {subsection}{\numberline {3.3.3}Objednávky}{43}{subsection.3.3.3}\protected@file@percent }
\@writefile{lof}{\contentsline {figure}{\numberline {3.10}{\ignorespaces Návrh přehledu všech objednávek}}{44}{figure.3.10}\protected@file@percent }
\newlabel{fig:order-table}{{\M@TitleReference {3.10}{Návrh přehledu všech objednávek}}{44}{Návrh přehledu všech objednávek}{figure.3.10}{}}
\@writefile{toc}{\contentsline {subsubsection}{\numberline {3.3.3.1}Přehled všech objednávek}{44}{subsubsection.3.3.3.1}\protected@file@percent }
\newlabel{design:order-colors}{{\M@TitleReference {3.3.3.1}{Přehled všech objednávek}}{44}{Přehled všech objednávek}{subsubsection.3.3.3.1}{}}
\@writefile{toc}{\contentsline {subsubsection}{\numberline {3.3.3.2}Detail objednávky}{45}{subsubsection.3.3.3.2}\protected@file@percent }
\@writefile{toc}{\contentsline {subsubsection}{\numberline {3.3.3.3}Dobropisy}{47}{subsubsection.3.3.3.3}\protected@file@percent }
\newlabel{design:order-credit-note}{{\M@TitleReference {3.3.3.3}{Dobropisy}}{47}{Dobropisy}{subsubsection.3.3.3.3}{}}
\@writefile{lof}{\contentsline {figure}{\numberline {3.11}{\ignorespaces První verze návrhu detailu objednávky}}{48}{figure.3.11}\protected@file@percent }
\newlabel{fig:order-detail-v1}{{\M@TitleReference {3.11}{První verze návrhu detailu objednávky}}{48}{První verze návrhu detailu objednávky}{figure.3.11}{}}
\@writefile{lof}{\contentsline {figure}{\numberline {3.12}{\ignorespaces Poslední verze návrhu detailu objednávky}}{49}{figure.3.12}\protected@file@percent }
\newlabel{fig:order-detail-v2}{{\M@TitleReference {3.12}{Poslední verze návrhu detailu objednávky}}{49}{Poslední verze návrhu detailu objednávky}{figure.3.12}{}}
\@writefile{toc}{\contentsline {subsubsection}{\numberline {3.3.3.4}Výběr dopravy a platby}{50}{subsubsection.3.3.3.4}\protected@file@percent }
\newlabel{desing:order-delivery-and-payment}{{\M@TitleReference {3.3.3.4}{Výběr dopravy a platby}}{50}{Výběr dopravy a platby}{subsubsection.3.3.3.4}{}}
\@writefile{toc}{\contentsline {section}{\numberline {3.4}Závěr}{50}{section.3.4}\protected@file@percent }
\@writefile{lof}{\contentsline {figure}{\numberline {3.13}{\ignorespaces Návrh stránky pro správu dobropisů}}{51}{figure.3.13}\protected@file@percent }
\newlabel{fig:order-credit-notes}{{\M@TitleReference {3.13}{Návrh stránky pro správu dobropisů}}{51}{Návrh stránky pro správu dobropisů}{figure.3.13}{}}
\@writefile{lof}{\contentsline {figure}{\numberline {3.14}{\ignorespaces Návrh komponenty pro výběr dopravy a platby}}{52}{figure.3.14}\protected@file@percent }
\newlabel{fig:order-delivery-and-payment}{{\M@TitleReference {3.14}{Návrh komponenty pro výběr dopravy a platby}}{52}{Návrh komponenty pro výběr dopravy a platby}{figure.3.14}{}}
\@setckpt{chapters/Design}{
\setcounter{page}{53}
\setcounter{equation}{0}
\setcounter{enumi}{0}
\setcounter{enumii}{0}
\setcounter{enumiii}{0}
\setcounter{enumiv}{0}
\setcounter{footnote}{0}
\setcounter{mpfootnote}{0}
\setcounter{@memmarkcntra}{0}
\setcounter{storedpagenumber}{1}
\setcounter{book}{0}
\setcounter{part}{0}
\setcounter{chapter}{3}
\setcounter{section}{4}
\setcounter{subsection}{0}
\setcounter{subsubsection}{0}
\setcounter{paragraph}{0}
\setcounter{subparagraph}{0}
\setcounter{@ppsavesec}{0}
\setcounter{@ppsaveapp}{0}
\setcounter{vslineno}{0}
\setcounter{poemline}{0}
\setcounter{modulo@vs}{0}
\setcounter{memfvsline}{0}
\setcounter{verse}{0}
\setcounter{chrsinstr}{0}
\setcounter{poem}{0}
\setcounter{newflo@tctr}{4}
\setcounter{@contsubnum}{0}
\setcounter{maxsecnumdepth}{3}
\setcounter{sidefootnote}{0}
\setcounter{pagenote}{0}
\setcounter{pagenoteshadow}{0}
\setcounter{memfbvline}{0}
\setcounter{bvlinectr}{0}
\setcounter{cp@cntr}{0}
\setcounter{ism@mctr}{0}
\setcounter{xsm@mctr}{0}
\setcounter{csm@mctr}{0}
\setcounter{ksm@mctr}{0}
\setcounter{xksm@mctr}{0}
\setcounter{cksm@mctr}{0}
\setcounter{msm@mctr}{0}
\setcounter{xmsm@mctr}{0}
\setcounter{cmsm@mctr}{0}
\setcounter{bsm@mctr}{0}
\setcounter{workm@mctr}{0}
\setcounter{sheetsequence}{71}
\setcounter{lastsheet}{109}
\setcounter{lastpage}{91}
\setcounter{figure}{14}
\setcounter{lofdepth}{1}
\setcounter{table}{2}
\setcounter{lotdepth}{1}
\setcounter{Item}{0}
\setcounter{Hfootnote}{0}
\setcounter{memhycontfloat}{0}
\setcounter{Hpagenote}{0}
\setcounter{bookmark@seq@number}{13}
\setcounter{AM@survey}{0}
\setcounter{tabx@nest}{0}
\setcounter{listtotal}{0}
\setcounter{listcount}{0}
\setcounter{liststart}{0}
\setcounter{liststop}{0}
\setcounter{citecount}{0}
\setcounter{citetotal}{0}
\setcounter{multicitecount}{0}
\setcounter{multicitetotal}{0}
\setcounter{instcount}{72}
\setcounter{maxnames}{99}
\setcounter{minnames}{1}
\setcounter{maxitems}{3}
\setcounter{minitems}{1}
\setcounter{citecounter}{0}
\setcounter{maxcitecounter}{0}
\setcounter{savedcitecounter}{0}
\setcounter{uniquelist}{0}
\setcounter{uniquename}{0}
\setcounter{refsection}{0}
\setcounter{refsegment}{0}
\setcounter{maxextratitle}{0}
\setcounter{maxextratitleyear}{0}
\setcounter{maxextraname}{5}
\setcounter{maxextradate}{0}
\setcounter{maxextraalpha}{0}
\setcounter{abbrvpenalty}{50}
\setcounter{highnamepenalty}{50}
\setcounter{lownamepenalty}{25}
\setcounter{maxparens}{3}
\setcounter{parenlevel}{0}
\setcounter{blx@maxsection}{0}
\setcounter{blx@maxsegment@0}{0}
\setcounter{blx@sectionciteorder@0}{72}
\setcounter{mincomprange}{10}
\setcounter{maxcomprange}{100000}
\setcounter{mincompwidth}{1}
\setcounter{afterword}{0}
\setcounter{savedafterword}{0}
\setcounter{annotator}{0}
\setcounter{savedannotator}{0}
\setcounter{author}{0}
\setcounter{savedauthor}{0}
\setcounter{bookauthor}{0}
\setcounter{savedbookauthor}{0}
\setcounter{commentator}{0}
\setcounter{savedcommentator}{0}
\setcounter{editor}{0}
\setcounter{savededitor}{0}
\setcounter{editora}{0}
\setcounter{savededitora}{0}
\setcounter{editorb}{0}
\setcounter{savededitorb}{0}
\setcounter{editorc}{0}
\setcounter{savededitorc}{0}
\setcounter{foreword}{0}
\setcounter{savedforeword}{0}
\setcounter{holder}{0}
\setcounter{savedholder}{0}
\setcounter{introduction}{0}
\setcounter{savedintroduction}{0}
\setcounter{namea}{0}
\setcounter{savednamea}{0}
\setcounter{nameb}{0}
\setcounter{savednameb}{0}
\setcounter{namec}{0}
\setcounter{savednamec}{0}
\setcounter{translator}{0}
\setcounter{savedtranslator}{0}
\setcounter{shortauthor}{0}
\setcounter{savedshortauthor}{0}
\setcounter{shorteditor}{0}
\setcounter{savedshorteditor}{0}
\setcounter{supervisor}{0}
\setcounter{savedsupervisor}{0}
\setcounter{labelname}{0}
\setcounter{savedlabelname}{0}
\setcounter{institution}{0}
\setcounter{savedinstitution}{0}
\setcounter{lista}{0}
\setcounter{savedlista}{0}
\setcounter{listb}{0}
\setcounter{savedlistb}{0}
\setcounter{listc}{0}
\setcounter{savedlistc}{0}
\setcounter{listd}{0}
\setcounter{savedlistd}{0}
\setcounter{liste}{0}
\setcounter{savedliste}{0}
\setcounter{listf}{0}
\setcounter{savedlistf}{0}
\setcounter{location}{0}
\setcounter{savedlocation}{0}
\setcounter{organization}{0}
\setcounter{savedorganization}{0}
\setcounter{origlocation}{0}
\setcounter{savedoriglocation}{0}
\setcounter{origpublisher}{0}
\setcounter{savedorigpublisher}{0}
\setcounter{publisher}{0}
\setcounter{savedpublisher}{0}
\setcounter{language}{0}
\setcounter{savedlanguage}{0}
\setcounter{origlanguage}{0}
\setcounter{savedoriglanguage}{0}
\setcounter{pageref}{0}
\setcounter{savedpageref}{0}
\setcounter{textcitecount}{0}
\setcounter{textcitetotal}{0}
\setcounter{textcitemaxnames}{0}
\setcounter{biburlbigbreakpenalty}{100}
\setcounter{biburlbreakpenalty}{200}
\setcounter{biburlnumpenalty}{0}
\setcounter{biburlucpenalty}{0}
\setcounter{biburllcpenalty}{0}
\setcounter{smartand}{1}
\setcounter{FancyVerbLine}{0}
\setcounter{linenumber}{1}
\setcounter{LN@truepage}{70}
\setcounter{FV@TrueTabGroupLevel}{0}
\setcounter{FV@TrueTabCounter}{0}
\setcounter{FV@HighlightLinesStart}{0}
\setcounter{FV@HighlightLinesStop}{0}
\setcounter{FancyVerbLineBreakLast}{0}
\setcounter{float@type}{8}
\setcounter{minted@FancyVerbLineTemp}{0}
\setcounter{minted@pygmentizecounter}{0}
\setcounter{listing}{0}
\setcounter{section@level}{1}
}
