\relax 
\providecommand\hyper@newdestlabel[2]{}
\@writefile{lof}{\addvspace {10pt}}
\@writefile{lot}{\addvspace {10pt}}
\@writefile{toc}{\contentsline {chapter}{\chapternumberline {4}Realizace}{53}{chapter.4}\protected@file@percent }
\@writefile{toc}{\contentsline {section}{\numberline {4.1}Výběr technologie}{53}{section.4.1}\protected@file@percent }
\newlabel{realisation:technology-choice}{{\M@TitleReference {4.1}{Výběr technologie}}{53}{Výběr technologie}{section.4.1}{}}
\@writefile{toc}{\contentsline {subsection}{\numberline {4.1.1}Angular}{53}{subsection.4.1.1}\protected@file@percent }
\@writefile{toc}{\contentsline {subsection}{\numberline {4.1.2}React}{54}{subsection.4.1.2}\protected@file@percent }
\@writefile{toc}{\contentsline {subsection}{\numberline {4.1.3}Vue.js}{54}{subsection.4.1.3}\protected@file@percent }
\@writefile{lot}{\contentsline {table}{\numberline {4.1}{\ignorespaces Výsledek průzkumu technologií}}{55}{table.4.1}\protected@file@percent }
\newlabel{tab:technologies}{{\M@TitleReference {4.1}{Výsledek průzkumu technologií}}{55}{Výsledek průzkumu technologií}{table.4.1}{}}
\@writefile{toc}{\contentsline {subsection}{\numberline {4.1.4}Výsledek průzkumu}{55}{subsection.4.1.4}\protected@file@percent }
\@writefile{toc}{\contentsline {section}{\numberline {4.2}Založení projektu}{55}{section.4.2}\protected@file@percent }
\newlabel{realisation:setup}{{\M@TitleReference {4.2}{Založení projektu}}{55}{Založení projektu}{section.4.2}{}}
\@writefile{toc}{\contentsline {subsection}{\numberline {4.2.1}TypeScript}{55}{subsection.4.2.1}\protected@file@percent }
\newlabel{realisation:ts}{{\M@TitleReference {4.2.1}{TypeScript}}{55}{TypeScript}{subsection.4.2.1}{}}
\@writefile{toc}{\contentsline {subsection}{\numberline {4.2.2}Vue CLI}{55}{subsection.4.2.2}\protected@file@percent }
\@writefile{lol}{\contentsline {listing}{\numberline {1}{\ignorespaces Nastavení barevné palety aplikace}}{56}{listing.1}\protected@file@percent }
\newlabel{code:colors}{{\M@TitleReference {1}{Vuetify}}{56}{Vuetify}{listing.1}{}}
\@writefile{toc}{\contentsline {subsection}{\numberline {4.2.3}Vuetify}{56}{subsection.4.2.3}\protected@file@percent }
\@writefile{toc}{\contentsline {subsection}{\numberline {4.2.4}ESLint}{57}{subsection.4.2.4}\protected@file@percent }
\newlabel{realisation:eslint}{{\M@TitleReference {4.2.4}{ESLint}}{57}{ESLint}{subsection.4.2.4}{}}
\@writefile{toc}{\contentsline {subsection}{\numberline {4.2.5}Vue I18n}{57}{subsection.4.2.5}\protected@file@percent }
\@writefile{toc}{\contentsline {subsection}{\numberline {4.2.6}Vue Router}{57}{subsection.4.2.6}\protected@file@percent }
\@writefile{toc}{\contentsline {subsection}{\numberline {4.2.7}Vuex}{57}{subsection.4.2.7}\protected@file@percent }
\@writefile{lol}{\contentsline {listing}{\numberline {2}{\ignorespaces ESlint pravidla použitá v~projektu}}{58}{listing.2}\protected@file@percent }
\newlabel{code:eslint-rules}{{\M@TitleReference {2}{ESLint}}{58}{ESLint}{listing.2}{}}
\@writefile{lol}{\contentsline {listing}{\numberline {3}{\ignorespaces Funkce pro automatické načtení souborů s~překlady}}{59}{listing.3}\protected@file@percent }
\newlabel{code:i18n-autoload}{{\M@TitleReference {3}{Vue I18n}}{59}{Vue I18n}{listing.3}{}}
\@writefile{toc}{\contentsline {subsection}{\numberline {4.2.8}Sentry}{60}{subsection.4.2.8}\protected@file@percent }
\@writefile{toc}{\contentsline {section}{\numberline {4.3}Podpůrné nástroje vývoje}{60}{section.4.3}\protected@file@percent }
\newlabel{realisation:support}{{\M@TitleReference {4.3}{Podpůrné nástroje vývoje}}{60}{Podpůrné nástroje vývoje}{section.4.3}{}}
\@writefile{toc}{\contentsline {subsection}{\numberline {4.3.1}Code review}{60}{subsection.4.3.1}\protected@file@percent }
\newlabel{realisation:cr}{{\M@TitleReference {4.3.1}{Code review}}{60}{Code review}{subsection.4.3.1}{}}
\@writefile{lol}{\contentsline {listing}{\numberline {4}{\ignorespaces Snackbar plugin pro zobrazování zpráv uživateli}}{61}{listing.4}\protected@file@percent }
\newlabel{code:snackbar-plugin}{{\M@TitleReference {4}{Podpůrné nástroje vývoje}}{61}{Podpůrné nástroje vývoje}{listing.4}{}}
\@writefile{lol}{\contentsline {listing}{\numberline {5}{\ignorespaces \uv  {Job} pro statickou kontrolu kódu}}{62}{listing.5}\protected@file@percent }
\newlabel{code:ci-lint}{{\M@TitleReference {5}{GitLab CI}}{62}{GitLab CI}{listing.5}{}}
\@writefile{toc}{\contentsline {subsection}{\numberline {4.3.2}GitLab CI}{62}{subsection.4.3.2}\protected@file@percent }
\@writefile{toc}{\contentsline {subsection}{\numberline {4.3.3}Form Fields}{62}{subsection.4.3.3}\protected@file@percent }
\@writefile{toc}{\contentsline {subsection}{\numberline {4.3.4}CK Editor}{63}{subsection.4.3.4}\protected@file@percent }
\@writefile{toc}{\contentsline {section}{\numberline {4.4}Spolupráce s týmem v předmětu BI-SP1}{63}{section.4.4}\protected@file@percent }
\newlabel{realisation:team}{{\M@TitleReference {4.4}{Spolupráce s týmem v předmětu BI-SP1}}{63}{Spolupráce s týmem v předmětu BI-SP1}{section.4.4}{}}
\@writefile{lol}{\contentsline {listing}{\numberline {6}{\ignorespaces Ukázka definice jednoho pole ve Form Fields}}{64}{listing.6}\protected@file@percent }
\newlabel{code:field-render}{{\M@TitleReference {6}{Form Fields}}{64}{Form Fields}{listing.6}{}}
\@writefile{lol}{\contentsline {listing}{\numberline {7}{\ignorespaces Ukázka použítí komponenty CK Editoru}}{64}{listing.7}\protected@file@percent }
\newlabel{code:ck-editor-component}{{\M@TitleReference {7}{CK Editor}}{64}{CK Editor}{listing.7}{}}
\@writefile{lol}{\contentsline {listing}{\numberline {8}{\ignorespaces Nastavení CK Editoru}}{65}{listing.8}\protected@file@percent }
\newlabel{code:ck-editor-config}{{\M@TitleReference {8}{CK Editor}}{65}{CK Editor}{listing.8}{}}
\@writefile{toc}{\contentsline {section}{\numberline {4.5}Problémy při implementaci}{65}{section.4.5}\protected@file@percent }
\newlabel{realisation:issues}{{\M@TitleReference {4.5}{Problémy při implementaci}}{65}{Problémy při implementaci}{section.4.5}{}}
\@writefile{toc}{\contentsline {subsection}{\numberline {4.5.1}Nekompletní knihovna Vuetify}{65}{subsection.4.5.1}\protected@file@percent }
\@writefile{toc}{\contentsline {subsection}{\numberline {4.5.2}Zpoždění BE}{66}{subsection.4.5.2}\protected@file@percent }
\@writefile{toc}{\contentsline {subsection}{\numberline {4.5.3}Řazení v~přehledu všech kategorií}{66}{subsection.4.5.3}\protected@file@percent }
\@writefile{toc}{\contentsline {section}{\numberline {4.6}Závěr}{67}{section.4.6}\protected@file@percent }
\@setckpt{chapters/Realisation}{
\setcounter{page}{68}
\setcounter{equation}{0}
\setcounter{enumi}{0}
\setcounter{enumii}{0}
\setcounter{enumiii}{0}
\setcounter{enumiv}{0}
\setcounter{footnote}{6}
\setcounter{mpfootnote}{0}
\setcounter{@memmarkcntra}{0}
\setcounter{storedpagenumber}{1}
\setcounter{book}{0}
\setcounter{part}{0}
\setcounter{chapter}{4}
\setcounter{section}{6}
\setcounter{subsection}{0}
\setcounter{subsubsection}{0}
\setcounter{paragraph}{0}
\setcounter{subparagraph}{0}
\setcounter{@ppsavesec}{0}
\setcounter{@ppsaveapp}{0}
\setcounter{vslineno}{0}
\setcounter{poemline}{0}
\setcounter{modulo@vs}{0}
\setcounter{memfvsline}{0}
\setcounter{verse}{0}
\setcounter{chrsinstr}{0}
\setcounter{poem}{0}
\setcounter{newflo@tctr}{4}
\setcounter{@contsubnum}{0}
\setcounter{maxsecnumdepth}{3}
\setcounter{sidefootnote}{0}
\setcounter{pagenote}{0}
\setcounter{pagenoteshadow}{0}
\setcounter{memfbvline}{0}
\setcounter{bvlinectr}{0}
\setcounter{cp@cntr}{0}
\setcounter{ism@mctr}{0}
\setcounter{xsm@mctr}{0}
\setcounter{csm@mctr}{0}
\setcounter{ksm@mctr}{0}
\setcounter{xksm@mctr}{0}
\setcounter{cksm@mctr}{0}
\setcounter{msm@mctr}{0}
\setcounter{xmsm@mctr}{0}
\setcounter{cmsm@mctr}{0}
\setcounter{bsm@mctr}{0}
\setcounter{workm@mctr}{0}
\setcounter{sheetsequence}{86}
\setcounter{lastsheet}{109}
\setcounter{lastpage}{91}
\setcounter{figure}{0}
\setcounter{lofdepth}{1}
\setcounter{table}{1}
\setcounter{lotdepth}{1}
\setcounter{Item}{0}
\setcounter{Hfootnote}{6}
\setcounter{memhycontfloat}{0}
\setcounter{Hpagenote}{0}
\setcounter{bookmark@seq@number}{20}
\setcounter{AM@survey}{0}
\setcounter{tabx@nest}{0}
\setcounter{listtotal}{0}
\setcounter{listcount}{0}
\setcounter{liststart}{0}
\setcounter{liststop}{0}
\setcounter{citecount}{0}
\setcounter{citetotal}{0}
\setcounter{multicitecount}{0}
\setcounter{multicitetotal}{0}
\setcounter{instcount}{115}
\setcounter{maxnames}{99}
\setcounter{minnames}{1}
\setcounter{maxitems}{3}
\setcounter{minitems}{1}
\setcounter{citecounter}{0}
\setcounter{maxcitecounter}{0}
\setcounter{savedcitecounter}{0}
\setcounter{uniquelist}{0}
\setcounter{uniquename}{0}
\setcounter{refsection}{0}
\setcounter{refsegment}{0}
\setcounter{maxextratitle}{0}
\setcounter{maxextratitleyear}{0}
\setcounter{maxextraname}{5}
\setcounter{maxextradate}{0}
\setcounter{maxextraalpha}{0}
\setcounter{abbrvpenalty}{50}
\setcounter{highnamepenalty}{50}
\setcounter{lownamepenalty}{25}
\setcounter{maxparens}{3}
\setcounter{parenlevel}{0}
\setcounter{blx@maxsection}{0}
\setcounter{blx@maxsegment@0}{0}
\setcounter{blx@sectionciteorder@0}{115}
\setcounter{mincomprange}{10}
\setcounter{maxcomprange}{100000}
\setcounter{mincompwidth}{1}
\setcounter{afterword}{0}
\setcounter{savedafterword}{0}
\setcounter{annotator}{0}
\setcounter{savedannotator}{0}
\setcounter{author}{0}
\setcounter{savedauthor}{0}
\setcounter{bookauthor}{0}
\setcounter{savedbookauthor}{0}
\setcounter{commentator}{0}
\setcounter{savedcommentator}{0}
\setcounter{editor}{0}
\setcounter{savededitor}{0}
\setcounter{editora}{0}
\setcounter{savededitora}{0}
\setcounter{editorb}{0}
\setcounter{savededitorb}{0}
\setcounter{editorc}{0}
\setcounter{savededitorc}{0}
\setcounter{foreword}{0}
\setcounter{savedforeword}{0}
\setcounter{holder}{0}
\setcounter{savedholder}{0}
\setcounter{introduction}{0}
\setcounter{savedintroduction}{0}
\setcounter{namea}{0}
\setcounter{savednamea}{0}
\setcounter{nameb}{0}
\setcounter{savednameb}{0}
\setcounter{namec}{0}
\setcounter{savednamec}{0}
\setcounter{translator}{0}
\setcounter{savedtranslator}{0}
\setcounter{shortauthor}{0}
\setcounter{savedshortauthor}{0}
\setcounter{shorteditor}{0}
\setcounter{savedshorteditor}{0}
\setcounter{supervisor}{0}
\setcounter{savedsupervisor}{0}
\setcounter{labelname}{0}
\setcounter{savedlabelname}{0}
\setcounter{institution}{0}
\setcounter{savedinstitution}{0}
\setcounter{lista}{0}
\setcounter{savedlista}{0}
\setcounter{listb}{0}
\setcounter{savedlistb}{0}
\setcounter{listc}{0}
\setcounter{savedlistc}{0}
\setcounter{listd}{0}
\setcounter{savedlistd}{0}
\setcounter{liste}{0}
\setcounter{savedliste}{0}
\setcounter{listf}{0}
\setcounter{savedlistf}{0}
\setcounter{location}{0}
\setcounter{savedlocation}{0}
\setcounter{organization}{0}
\setcounter{savedorganization}{0}
\setcounter{origlocation}{0}
\setcounter{savedoriglocation}{0}
\setcounter{origpublisher}{0}
\setcounter{savedorigpublisher}{0}
\setcounter{publisher}{0}
\setcounter{savedpublisher}{0}
\setcounter{language}{0}
\setcounter{savedlanguage}{0}
\setcounter{origlanguage}{0}
\setcounter{savedoriglanguage}{0}
\setcounter{pageref}{0}
\setcounter{savedpageref}{0}
\setcounter{textcitecount}{0}
\setcounter{textcitetotal}{0}
\setcounter{textcitemaxnames}{0}
\setcounter{biburlbigbreakpenalty}{100}
\setcounter{biburlbreakpenalty}{200}
\setcounter{biburlnumpenalty}{0}
\setcounter{biburlucpenalty}{0}
\setcounter{biburllcpenalty}{0}
\setcounter{smartand}{1}
\setcounter{FancyVerbLine}{11}
\setcounter{linenumber}{1}
\setcounter{LN@truepage}{85}
\setcounter{FV@TrueTabGroupLevel}{0}
\setcounter{FV@TrueTabCounter}{0}
\setcounter{FV@HighlightLinesStart}{0}
\setcounter{FV@HighlightLinesStop}{0}
\setcounter{FancyVerbLineBreakLast}{0}
\setcounter{float@type}{8}
\setcounter{minted@FancyVerbLineTemp}{8}
\setcounter{minted@pygmentizecounter}{10}
\setcounter{listing}{8}
\setcounter{section@level}{1}
}
